<?xml version="1.0" encoding="utf-8"?>
<!-- Generator: Adobe Illustrator 25.4.1, SVG Export Plug-In . SVG Version: 6.00 Build 0)  -->
<svg version="1.1" xmlns="http://www.w3.org/2000/svg" xmlns:xlink="http://www.w3.org/1999/xlink" x="0px" y="0px"
	 viewBox="0 0 300 300" style="enable-background:new 0 0 300 300;" xml:space="preserve">
<style type="text/css">
	.st0{fill:#F6B729;}
	.st1{opacity:0.13;fill:#010101;}
	.st2{fill:#FFFFFF;}
</style>
<g id="Capa_1">
</g>
<g id="Layer_1">
	<g>
		<circle class="st0" cx="149.68" cy="150.47" r="150"/>
		<path class="st1" d="M238.63,29.2C23.92,19.99,16.87,217.47,16.82,218.9C6.28,198.38,0.34,175.12,0.34,150.48
			c0-82.85,67.16-150,150-150C183.34,0.48,213.86,11.14,238.63,29.2z"/>
	</g>
	<g>
		<path class="st2" d="M187.95,155.5c6.8,7.2,10.2,16.2,10.2,27c0,8.13-2.07,15.53-6.2,22.2c-4.13,6.67-10.37,11.97-18.7,15.9
			c-8.33,3.93-18.5,5.9-30.5,5.9c-10,0-19.63-1.43-28.9-4.3c-9.27-2.87-17.17-6.83-23.7-11.9l11.2-20.2
			c5.07,4.27,11.23,7.63,18.5,10.1c7.27,2.47,14.77,3.7,22.5,3.7c9.2,0,16.43-1.9,21.7-5.7c5.27-3.8,7.9-8.97,7.9-15.5
			c0-6.53-2.5-11.63-7.5-15.3c-5-3.67-12.63-5.5-22.9-5.5h-12.8v-17.8l31.8-37.8h-63.6V84.5h95.4v17.4l-34,40.4
			C171.29,143.9,181.15,148.3,187.95,155.5z"/>
	</g>
</g>
</svg>
