<?xml version="1.0" encoding="utf-8"?>
<!-- Generator: Adobe Illustrator 25.4.1, SVG Export Plug-In . SVG Version: 6.00 Build 0)  -->
<svg version="1.1" xmlns="http://www.w3.org/2000/svg" xmlns:xlink="http://www.w3.org/1999/xlink" x="0px" y="0px"
	 viewBox="0 0 506 507" style="enable-background:new 0 0 506 507;" xml:space="preserve">
<style type="text/css">
	.st0{fill:#117BA2;}
	.st1{opacity:0.13;fill:#010101;}
	.st2{fill:#FFFFFF;}
</style>
<g id="Capa_1">
</g>
<g id="Layer_1">
	<g>
		<circle class="st0" cx="253.3" cy="253.6" r="247.3"/>
		<path class="st1" d="M398.3,53.5C44.3,38.3,32.6,363.9,32.5,366.2C15.2,332.4,5.4,294,5.4,253.4C5.4,116.8,116.1,6.1,252.7,6.1
			C307.1,6.1,357.4,23.7,398.3,53.5z"/>
		<g>
			<path class="st2" d="M282.7,206.8L282.7,206.8c0-5.2,4.3-8.9,9.6-8.9h25.2V186h-25.2c-5.3,0-9.6-4.3-9.6-9.6
				c0-5.3,4.3-9.6,9.6-9.6h25.2v-12.6h-25.2c-5.3,0-9.6-4.2-9.6-9.5c0,0,0,0,0,0v-0.1c0,0,0,0.2,0,0.2c0-5.3,4.3-9.3,9.6-9.3h22.1
				c-7.7-26.6-32-45.6-60.9-45.6c-28.9,0-53.2,19-60.9,45.6h23c5.3,0,9.4,4,9.4,9.3c0,0-0.1-0.2-0.1-0.3v0.1c0,0,0.1,0,0.1,0
				c0,5.3-4.1,9.4-9.4,9.4h-26.2v12.6h26.2c5.3,0,9.6,4.3,9.6,9.6c0,5.3-4.3,9.6-9.6,9.6h-26.2v11.8h26.2c5.3,0,9.3,3.7,9.3,9
				c0,0,0,0,0,0v0.1c0,0,0,0,0,0c0,5.3-4.1,9.5-9.3,9.5h-26.2v4.4c0,35,28.9,63.4,64,63.4c35,0,64-28.4,64-63.4v-4.4h-25.2
				C287,216.3,282.7,212,282.7,206.8z"/>
		</g>
		<path class="st2" d="M259.3,406.8h-11.8c-7.6,0-13.9-6.2-13.9-13.9v-68.1c0-7.6,6.2-13.9,13.9-13.9h11.8c7.6,0,13.9,6.2,13.9,13.9
			v68.1C273.2,400.6,267,406.8,259.3,406.8z"/>
		<path class="st2" d="M202.8,403.8V392c0-7.6,6.2-13.9,13.9-13.9h68.1c7.6,0,13.9,6.2,13.9,13.9v11.8c0,7.6-6.2,13.9-13.9,13.9
			h-68.1C209.1,417.7,202.8,411.5,202.8,403.8z"/>
		<path class="st2" d="M253.6,307.4c-47,0-85.1-38.5-85.1-85.1h-18.1c0,57,46.2,103.2,103.2,103.2c57,0,103.2-46.3,103.2-103.2
			h-18.1C338.7,268.9,300.6,307.4,253.6,307.4z"/>
	</g>
</g>
</svg>
